mutation_id	ref_counts	var_counts	normal_cn	minor_cn	major_cn	total_cn	var_freq
UNKNOWN:chr19:6042126	48	17	2	2	4	6	0.26153846153846155
UNKNOWN:chr10:94492432	17	17	2	2	2	4	0.5
UNKNOWN:chr7:153326063	62	21	2	2	6	8	0.25301204819277107
UNKNOWN:chr1:152733344	19	21	2	2	3	5	0.525
UNKNOWN:chr6:36981434	23	17	2	2	2	4	0.425
UNKNOWN:chr2:30555757	20	14	2	2	2	4	0.4117647058823529
UNKNOWN:chr16:55844609	0	20	2	0	2	2	1.0
UNKNOWN:chr13:40393022	11	1	2	0	2	2	0.08333333333333333
UNKNOWN:chr21:18065933	32	36	2	2	4	6	0.5294117647058824
UNKNOWN:chr1:52507254	52	20	2	2	4	6	0.2777777777777778
UNKNOWN:chr7:118387570	46	11	2	2	6	8	0.19298245614035087
UNKNOWN:chr8:116787892	101	18	2	1	7	8	0.15126050420168066
UNKNOWN:chr19:55660537	0	15	2	2	2	4	1.0
UNKNOWN:chr10:77824804	18	13	2	2	2	4	0.41935483870967744
UNKNOWN:chr7:100678560	89	35	2	2	6	8	0.28225806451612906
UNKNOWN:chr11:55587511	0	59	2	2	4	6	1.0
UNKNOWN:chr14:69006916	9	11	2	2	3	5	0.55
UNKNOWN:chr2:37406761	15	15	2	2	2	4	0.5
UNKNOWN:chr3:183756003	102	1	2	4	4	8	0.009708737864077669
UNKNOWN:chr16:25255506	21	23	2	2	2	4	0.5227272727272727
UNKNOWN:chr11:103104930	0	41	2	2	4	6	1.0
UNKNOWN:chr1:206974576	20	20	2	2	3	5	0.5
UNKNOWN:chr7:100646199	94	66	2	2	6	8	0.4125
UNKNOWN:chr4:44176925	5	16	2	0	2	2	0.7619047619047619
UNKNOWN:chr2:182185674	70	1	2	2	2	4	0.014084507042253521
UNKNOWN:chr11:111781021	25	44	2	2	4	6	0.6376811594202898
UNKNOWN:chr20:55803466	59	15	2	4	4	8	0.20270270270270271
UNKNOWN:chr12:95603564	6	35	2	0	4	4	0.8536585365853658
UNKNOWN:chr7:135304273	0	55	2	2	6	8	1.0
UNKNOWN:chr19:54849908	26	24	2	2	2	4	0.48
UNKNOWN:chrX:107908798	10	9	2	2	2	4	0.47368421052631576
UNKNOWN:chr2:198065053	17	17	2	2	2	4	0.5
UNKNOWN:chr1:21133981	28	1	2	0	4	4	0.034482758620689655
UNKNOWN:chr3:52507719	0	39	2	2	2	4	1.0
UNKNOWN:chr1:178489978	18	21	2	2	3	5	0.5384615384615384
UNKNOWN:chr2:37406644	24	23	2	2	2	4	0.48936170212765956
UNKNOWN:chr1:171605702	15	10	2	2	3	5	0.4
UNKNOWN:chr4:62730906	16	26	2	2	4	6	0.6190476190476191
UNKNOWN:chr20:60770918	67	16	2	4	4	8	0.1927710843373494
UNKNOWN:chr1:203040922	30	13	2	2	3	5	0.3023255813953488
UNKNOWN:chr17:41197274	46	4	2	0	6	6	0.08
UNKNOWN:chr10:15113876	19	19	2	2	2	4	0.5
UNKNOWN:chr8:108970367	0	106	2	1	7	8	1.0
UNKNOWN:chr7:100646127	129	46	2	2	6	8	0.26285714285714284
UNKNOWN:chr20:45188782	23	19	2	2	2	4	0.4523809523809524
UNKNOWN:chr1:148004732	34	16	2	2	3	5	0.32
UNKNOWN:chr1:111862074	28	41	2	2	4	6	0.5942028985507246
UNKNOWN:chr7:134673958	0	30	2	2	6	8	1.0
UNKNOWN:chr13:70178867	41	14	2	0	4	4	0.2545454545454545
UNKNOWN:chr7:141838362	16	62	2	2	6	8	0.7948717948717948
UNKNOWN:chr1:203186096	21	14	2	2	3	5	0.4
UNKNOWN:chr1:50610629	20	10	2	2	4	6	0.3333333333333333
UNKNOWN:chr15:89195526	0	20	2	2	3	5	1.0
UNKNOWN:chr11:55860780	0	28	2	2	4	6	1.0
UNKNOWN:chr4:16511877	3	19	2	0	2	2	0.8636363636363636
UNKNOWN:chr8:124706165	118	19	2	1	7	8	0.1386861313868613
UNKNOWN:chr20:29559196	37	9	2	2	2	4	0.1956521739130435
UNKNOWN:chr1:204237416	0	21	2	2	3	5	1.0
UNKNOWN:chr11:116728984	39	11	2	2	4	6	0.22
UNKNOWN:chr12:62892905	19	34	2	2	4	6	0.6415094339622641
UNKNOWN:chr20:57829684	36	41	2	4	4	8	0.5324675324675324
UNKNOWN:chr1:148004749	31	13	2	2	3	5	0.29545454545454547
UNKNOWN:chr9:135203786	24	12	2	0	4	4	0.3333333333333333
UNKNOWN:chr18:8809568	38	24	2	2	4	6	0.3870967741935484
UNKNOWN:chr7:100678616	87	30	2	2	6	8	0.2564102564102564
UNKNOWN:chr11:12371942	7	37	2	0	4	4	0.8409090909090909
UNKNOWN:chr13:94938627	17	8	2	0	4	4	0.32
UNKNOWN:chr12:96380881	2	24	2	0	4	4	0.9230769230769231
UNKNOWN:chr2:133542014	0	33	2	2	2	4	1.0
UNKNOWN:chr19:54745508	15	18	2	2	2	4	0.5454545454545454
UNKNOWN:chr19:54726816	1	5	2	2	2	4	0.8333333333333334
UNKNOWN:chr5:54526792	26	32	2	2	4	6	0.5517241379310345
UNKNOWN:chr3:122630323	0	45	2	2	2	4	1.0
UNKNOWN:chr7:88847132	34	16	2	2	6	8	0.32
UNKNOWN:chr1:28209002	17	29	2	2	4	6	0.6304347826086957
UNKNOWN:chr1:99383051	22	21	2	2	2	4	0.4883720930232558
UNKNOWN:chr14:21991722	31	1	2	2	3	5	0.03125
UNKNOWN:chr14:63187987	21	10	2	2	3	5	0.3225806451612903
UNKNOWN:chr7:125728892	42	14	2	2	6	8	0.25
UNKNOWN:chr2:175460648	39	1	2	2	6	8	0.025
UNKNOWN:chr8:127803742	108	17	2	2	6	8	0.136
UNKNOWN:chr20:57979117	46	10	2	4	4	8	0.17857142857142858
UNKNOWN:chr1:247587531	0	32	2	2	3	5	1.0
UNKNOWN:chr1:51778576	46	21	2	2	4	6	0.31343283582089554
UNKNOWN:chr12:130589420	30	1	2	0	4	4	0.03225806451612903
UNKNOWN:chr8:137988964	158	29	2	2	6	8	0.15508021390374332
UNKNOWN:chr3:121417127	18	24	2	2	2	4	0.5714285714285714
UNKNOWN:chr7:100551433	73	30	2	2	6	8	0.2912621359223301
UNKNOWN:chr5:176011954	50	14	2	2	4	6	0.21875
UNKNOWN:chr17:38179492	0	18	2	0	2	2	1.0
UNKNOWN:chr19:54726872	6	5	2	2	2	4	0.45454545454545453
UNKNOWN:chrX:138678815	52	19	2	2	6	8	0.2676056338028169
UNKNOWN:chr1:20991273	0	5	2	0	4	4	1.0
UNKNOWN:chr7:137160367	86	1	2	2	6	8	0.011494252873563218
UNKNOWN:chr14:59789892	21	26	2	2	3	5	0.5531914893617021
UNKNOWN:chr16:51281273	17	1	2	0	2	2	0.05555555555555555
UNKNOWN:chr1:201018177	13	7	2	2	3	5	0.35
UNKNOWN:chr9:16436168	45	15	2	2	4	6	0.25
UNKNOWN:chr7:146174950	40	11	2	2	6	8	0.21568627450980393
UNKNOWN:chr10:33137515	0	29	2	2	2	4	1.0
UNKNOWN:chr7:100678527	87	48	2	2	6	8	0.35555555555555557
UNKNOWN:chr7:46324301	12	20	2	2	2	4	0.625
UNKNOWN:chr11:103838094	29	17	2	2	4	6	0.3695652173913043
UNKNOWN:chr10:3202065	25	18	2	2	2	4	0.4186046511627907
UNKNOWN:chr11:123410439	28	13	2	2	4	6	0.3170731707317073
UNKNOWN:chr15:63004226	22	12	2	2	3	5	0.35294117647058826
UNKNOWN:chr1:94341267	18	15	2	2	2	4	0.45454545454545453
UNKNOWN:chr2:132045072	41	5	2	2	2	4	0.10869565217391304
UNKNOWN:chr6:41653923	26	16	2	2	2	4	0.38095238095238093
UNKNOWN:chr1:203040816	27	21	2	2	3	5	0.4375
UNKNOWN:chr12:104373370	26	2	2	0	4	4	0.07142857142857142
UNKNOWN:chr5:150885297	24	15	2	2	4	6	0.38461538461538464
UNKNOWN:chr22:23508617	18	17	2	2	3	5	0.4857142857142857
UNKNOWN:chr9:36169613	54	31	2	2	4	6	0.36470588235294116
UNKNOWN:chr3:148789042	21	16	2	2	4	6	0.43243243243243246
UNKNOWN:chr13:111158874	0	28	2	0	4	4	1.0
UNKNOWN:chr9:138011706	33	16	2	0	4	4	0.32653061224489793
UNKNOWN:chr1:10355834	39	1	2	0	4	4	0.025
UNKNOWN:chr7:100678622	87	30	2	2	6	8	0.2564102564102564
UNKNOWN:chr12:95603543	7	29	2	0	4	4	0.8055555555555556
UNKNOWN:chr3:4917521	11	18	2	2	2	4	0.6206896551724138
UNKNOWN:chr15:92647645	0	28	2	2	3	5	1.0
UNKNOWN:chr2:102029471	18	21	2	2	2	4	0.5384615384615384
UNKNOWN:chr8:38876466	0	25	2	0	2	2	1.0
UNKNOWN:chr3:107492152	17	17	2	2	2	4	0.5
UNKNOWN:chr6:23707702	49	1	2	2	4	6	0.02
UNKNOWN:chr11:12534808	0	53	2	0	4	4	1.0
UNKNOWN:chr11:55872876	1	74	2	2	4	6	0.9866666666666667
UNKNOWN:chr15:88522594	25	25	2	2	3	5	0.5
UNKNOWN:chr20:33394868	15	20	2	2	2	4	0.5714285714285714
UNKNOWN:chr7:100551476	80	49	2	2	6	8	0.3798449612403101
UNKNOWN:chr11:105880660	15	38	2	2	4	6	0.7169811320754716
UNKNOWN:chr2:132045060	41	7	2	2	2	4	0.14583333333333334
UNKNOWN:chr3:122869053	14	15	2	2	2	4	0.5172413793103449
UNKNOWN:chr5:38144723	56	27	2	2	4	6	0.3253012048192771
UNKNOWN:chr16:89858417	1	21	2	0	2	2	0.9545454545454546
UNKNOWN:chr15:85188994	0	26	2	2	3	5	1.0
UNKNOWN:chr3:107808385	26	15	2	2	2	4	0.36585365853658536
UNKNOWN:chr16:55844617	0	23	2	0	2	2	1.0
UNKNOWN:chr14:33291494	15	17	2	2	3	5	0.53125
UNKNOWN:chr9:114468966	22	1	2	0	4	4	0.043478260869565216
UNKNOWN:chr14:50769717	22	22	2	2	3	5	0.5
UNKNOWN:chr7:125680684	48	13	2	2	6	8	0.21311475409836064
UNKNOWN:chr10:33137551	0	27	2	2	2	4	1.0
UNKNOWN:chr7:100678568	84	39	2	2	6	8	0.3170731707317073
UNKNOWN:chr7:128517183	45	22	2	2	6	8	0.3283582089552239
UNKNOWN:chr13:52971893	0	87	2	0	4	4	1.0
UNKNOWN:chr17:78346870	1	23	2	0	6	6	0.9583333333333334
UNKNOWN:chr12:15679208	4	11	2	0	2	2	0.7333333333333333
UNKNOWN:chr6:91143776	50	1	2	2	2	4	0.0196078431372549
UNKNOWN:chr5:155771579	22	18	2	2	4	6	0.45
UNKNOWN:chr7:85127700	22	16	2	2	6	8	0.42105263157894735
UNKNOWN:chr17:8108331	1	15	2	0	2	2	0.9375
UNKNOWN:chr14:68053977	0	28	2	2	3	5	1.0
UNKNOWN:chr2:54587596	0	35	2	2	2	4	1.0
UNKNOWN:chr4:100201477	4	20	2	0	2	2	0.8333333333333334
UNKNOWN:chr10:3202140	25	27	2	2	2	4	0.5192307692307693
UNKNOWN:chr2:37406807	16	16	2	2	2	4	0.5
UNKNOWN:chr6:24596478	1	49	2	2	4	6	0.98
UNKNOWN:chr11:124180659	27	18	2	2	4	6	0.4
UNKNOWN:chr21:34015719	30	10	2	2	4	6	0.25
UNKNOWN:chr2:64863163	49	1	2	2	2	4	0.02
UNKNOWN:chr19:17648350	0	59	2	2	4	6	1.0
UNKNOWN:chr18:66775391	19	16	2	2	3	5	0.45714285714285713
UNKNOWN:chr20:9561439	24	1	2	2	2	4	0.04
UNKNOWN:chr7:100550133	78	68	2	2	6	8	0.4657534246575342
UNKNOWN:chr2:45543797	29	11	2	2	2	4	0.275
UNKNOWN:chr4:48332206	21	5	2	2	4	6	0.19230769230769232
UNKNOWN:chr11:20124914	0	51	2	0	4	4	1.0
UNKNOWN:chr2:230910679	56	14	2	2	4	6	0.2
UNKNOWN:chr6:27879871	52	18	2	2	4	6	0.2571428571428571
UNKNOWN:chr2:219247814	60	1	2	2	4	6	0.01639344262295082
UNKNOWN:chr3:19516989	21	16	2	2	2	4	0.43243243243243246
UNKNOWN:chr19:53668549	32	24	2	2	2	4	0.42857142857142855
UNKNOWN:chr5:97319779	5	5	2	0	2	2	0.5
UNKNOWN:chr8:117089727	121	20	2	1	7	8	0.14184397163120568
UNKNOWN:chr10:110919597	14	24	2	2	2	4	0.631578947368421
UNKNOWN:chr9:84490448	11	27	2	0	4	4	0.7105263157894737
UNKNOWN:chr17:1786046	40	3	2	0	4	4	0.06976744186046512
UNKNOWN:chr6:33134392	1	27	2	2	2	4	0.9642857142857143
UNKNOWN:chr1:154145447	22	18	2	2	3	5	0.45
UNKNOWN:chr5:168112823	14	4	2	0	2	2	0.2222222222222222
UNKNOWN:chr12:130396887	1	30	2	0	4	4	0.967741935483871
UNKNOWN:chr4:61328317	25	12	2	2	4	6	0.32432432432432434
UNKNOWN:chr11:123814544	24	10	2	2	4	6	0.29411764705882354
UNKNOWN:chr9:125330125	50	5	2	0	4	4	0.09090909090909091
UNKNOWN:chr10:123171708	31	21	2	2	2	4	0.40384615384615385
UNKNOWN:chr2:132044992	0	21	2	2	2	4	1.0
UNKNOWN:chr13:39266043	9	17	2	0	2	2	0.6538461538461539
UNKNOWN:chr11:126277216	16	30	2	2	4	6	0.6521739130434783
UNKNOWN:chr13:34395304	1	14	2	0	2	2	0.9333333333333333
UNKNOWN:chr5:150113130	18	31	2	2	4	6	0.6326530612244898
UNKNOWN:chr6:133849966	6	17	2	0	2	2	0.7391304347826086
UNKNOWN:chr3:105420966	26	19	2	2	2	4	0.4222222222222222
UNKNOWN:chr11:62293948	52	13	2	2	4	6	0.2
UNKNOWN:chr2:132045080	41	5	2	2	2	4	0.10869565217391304
UNKNOWN:chr17:15871462	10	24	2	0	2	2	0.7058823529411765
UNKNOWN:chr3:171338411	11	13	2	2	4	6	0.5416666666666666
UNKNOWN:chr8:125989015	99	30	2	2	6	8	0.23255813953488372
UNKNOWN:chr1:205030534	20	17	2	2	3	5	0.4594594594594595
UNKNOWN:chr4:123167427	7	13	2	0	2	2	0.65
UNKNOWN:chr16:30095236	16	22	2	2	2	4	0.5789473684210527
UNKNOWN:chr11:77595080	22	22	2	2	2	4	0.5
UNKNOWN:chr7:82455895	18	7	2	2	6	8	0.28
UNKNOWN:chr2:173919366	11	28	2	2	6	8	0.717948717948718
UNKNOWN:chr4:13842273	24	1	2	0	2	2	0.04
UNKNOWN:chr10:12240680	17	9	2	2	2	4	0.34615384615384615
UNKNOWN:chr12:68847012	47	16	2	2	4	6	0.25396825396825395
UNKNOWN:chr6:33255103	16	26	2	2	2	4	0.6190476190476191
UNKNOWN:chr19:4910924	37	25	2	2	4	6	0.4032258064516129
UNKNOWN:chr12:53162528	39	20	2	2	4	6	0.3389830508474576
UNKNOWN:chr7:100550079	82	66	2	2	6	8	0.44594594594594594
UNKNOWN:chr6:21381252	42	15	2	2	4	6	0.2631578947368421
UNKNOWN:chr14:79960137	27	15	2	2	3	5	0.35714285714285715
UNKNOWN:chr19:54745507	15	17	2	2	2	4	0.53125
UNKNOWN:chr1:246943710	46	1	2	2	3	5	0.02127659574468085
UNKNOWN:chr9:125424507	61	6	2	0	4	4	0.08955223880597014
UNKNOWN:chr2:152381777	49	1	2	2	4	6	0.02
UNKNOWN:chr1:52249602	39	17	2	2	4	6	0.30357142857142855
UNKNOWN:chr6:55739189	10	10	2	2	2	4	0.5
UNKNOWN:chr17:10596250	8	17	2	0	2	2	0.68
UNKNOWN:chr2:217939304	23	29	2	2	4	6	0.5576923076923077
UNKNOWN:chr7:100551473	79	45	2	2	6	8	0.3629032258064516
UNKNOWN:chr2:133541937	12	17	2	2	2	4	0.5862068965517241
UNKNOWN:chr2:43726094	15	10	2	2	2	4	0.4
UNKNOWN:chr14:63187988	22	9	2	2	3	5	0.2903225806451613
UNKNOWN:chr7:100678610	86	31	2	2	6	8	0.26495726495726496
UNKNOWN:chr4:84717933	68	3	2	2	4	6	0.04225352112676056
UNKNOWN:chr16:21574511	40	12	2	2	2	4	0.23076923076923078
UNKNOWN:chr5:158439916	22	6	2	2	4	6	0.21428571428571427
UNKNOWN:chr3:124732049	29	25	2	2	2	4	0.46296296296296297
UNKNOWN:chr2:224494031	21	40	2	2	4	6	0.6557377049180327
UNKNOWN:chr1:6473294	28	4	2	0	4	4	0.125
UNKNOWN:chr3:16368436	14	21	2	2	2	4	0.6
UNKNOWN:chr16:65473154	43	1	2	0	2	2	0.022727272727272728
UNKNOWN:chr4:154513627	17	2	2	0	2	2	0.10526315789473684
UNKNOWN:chr7:7724805	10	2	2	0	2	2	0.16666666666666666
UNKNOWN:chr16:78148830	2	19	2	0	2	2	0.9047619047619048
UNKNOWN:chrX:90691137	14	16	2	2	2	4	0.5333333333333333
UNKNOWN:chr7:82455933	17	5	2	2	6	8	0.22727272727272727
UNKNOWN:chr19:8953801	0	47	2	2	4	6	1.0
UNKNOWN:chr12:1034943	34	9	2	2	4	6	0.20930232558139536
UNKNOWN:chr14:53539471	0	37	2	2	3	5	1.0
UNKNOWN:chr9:75309621	31	16	2	2	4	6	0.3404255319148936
UNKNOWN:chr19:7831166	45	23	2	2	4	6	0.3382352941176471
UNKNOWN:chr4:162697197	8	20	2	0	2	2	0.7142857142857143
UNKNOWN:chr18:67916698	19	19	2	2	3	5	0.5
UNKNOWN:chr20:29559209	37	9	2	2	2	4	0.1956521739130435
UNKNOWN:chr7:103009375	29	6	2	2	6	8	0.17142857142857143
UNKNOWN:chr7:100551461	80	42	2	2	6	8	0.3442622950819672
UNKNOWN:chr14:59789909	29	27	2	2	3	5	0.48214285714285715
UNKNOWN:chr10:50708586	39	1	2	2	2	4	0.025
UNKNOWN:chr6:41162518	20	20	2	2	2	4	0.5
UNKNOWN:chr1:152732933	14	20	2	2	3	5	0.5882352941176471
UNKNOWN:chr9:449874	22	11	2	2	4	6	0.3333333333333333
UNKNOWN:chr14:82246445	10	11	2	2	3	5	0.5238095238095238
UNKNOWN:chr3:123444833	17	17	2	2	2	4	0.5
UNKNOWN:chr1:27734828	31	41	2	2	4	6	0.5694444444444444
UNKNOWN:chr19:51957486	20	8	2	2	2	4	0.2857142857142857
UNKNOWN:chr10:117967536	26	15	2	2	2	4	0.36585365853658536
UNKNOWN:chr2:37406680	21	28	2	2	2	4	0.5714285714285714
UNKNOWN:chr15:71125093	17	21	2	2	3	5	0.5526315789473685
UNKNOWN:chr14:25043983	22	12	2	2	3	5	0.35294117647058826
UNKNOWN:chr19:38996066	13	24	2	2	2	4	0.6486486486486487
UNKNOWN:chrX:138684838	42	11	2	2	6	8	0.20754716981132076
UNKNOWN:chr1:204199453	29	5	2	2	3	5	0.14705882352941177
UNKNOWN:chr1:111861979	39	23	2	2	4	6	0.3709677419354839
UNKNOWN:chr1:75474357	25	13	2	2	2	4	0.34210526315789475
UNKNOWN:chr1:87804175	39	1	2	2	2	4	0.025
UNKNOWN:chr7:99077386	25	57	2	2	6	8	0.6951219512195121
UNKNOWN:chr7:150952352	81	1	2	2	6	8	0.012195121951219513
UNKNOWN:chr19:53668441	42	1	2	2	2	4	0.023255813953488372
UNKNOWN:chr17:67215812	36	5	2	0	6	6	0.12195121951219512
UNKNOWN:chr4:119806127	5	16	2	0	2	2	0.7619047619047619
UNKNOWN:chr11:64572602	22	43	2	2	4	6	0.6615384615384615
UNKNOWN:chr8:101146042	21	21	2	4	4	8	0.5
UNKNOWN:chr17:7578370	4	14	2	0	2	2	0.7777777777777778
UNKNOWN:chr1:245772788	27	1	2	2	3	5	0.03571428571428571
UNKNOWN:chr2:10187838	45	1	2	2	2	4	0.021739130434782608
UNKNOWN:chr4:78882267	17	12	2	2	4	6	0.41379310344827586
UNKNOWN:chr4:96073956	0	16	2	0	2	2	1.0
UNKNOWN:chr12:46759017	0	82	2	2	4	6	1.0
UNKNOWN:chr4:120133549	1	18	2	0	2	2	0.9473684210526315
UNKNOWN:chr6:9361395	33	14	2	2	4	6	0.2978723404255319
UNKNOWN:chr1:145558565	0	46	2	2	3	5	1.0
UNKNOWN:chr22:27003968	17	17	2	2	3	5	0.5
UNKNOWN:chr14:75512143	13	16	2	2	3	5	0.5517241379310345
UNKNOWN:chr8:38876468	0	26	2	0	2	2	1.0
UNKNOWN:chr16:89858525	8	30	2	0	2	2	0.7894736842105263
UNKNOWN:chr5:138259985	4	26	2	2	4	6	0.8666666666666667
UNKNOWN:chr10:18931512	0	25	2	2	2	4	1.0
UNKNOWN:chr7:100550138	83	66	2	2	6	8	0.4429530201342282
UNKNOWN:chr5:73605537	9	16	2	0	2	2	0.64
UNKNOWN:chrX:118151226	20	21	2	2	2	4	0.5121951219512195
UNKNOWN:chr14:65258644	44	15	2	2	3	5	0.2542372881355932
UNKNOWN:chr17:4083127	14	2	2	0	2	2	0.125
UNKNOWN:chr17:8108339	1	16	2	0	2	2	0.9411764705882353
UNKNOWN:chr14:53539380	13	15	2	2	3	5	0.5357142857142857
UNKNOWN:chr7:62753202	4	12	2	2	2	4	0.75
UNKNOWN:chr13:97537864	1	47	2	0	4	4	0.9791666666666666
UNKNOWN:chr1:114484056	26	12	2	2	2	4	0.3157894736842105
UNKNOWN:chr5:43628411	26	6	2	2	4	6	0.1875
UNKNOWN:chr9:36169598	45	30	2	2	4	6	0.4
UNKNOWN:chr12:12814818	0	31	2	0	2	2	1.0
UNKNOWN:chr11:5536309	45	3	2	0	4	4	0.0625
UNKNOWN:chr4:5690902	14	29	2	2	4	6	0.6744186046511628
UNKNOWN:chr14:107032466	9	18	2	0	2	2	0.6666666666666666
UNKNOWN:chr2:152466444	33	44	2	2	4	6	0.5714285714285714
UNKNOWN:chr20:54824853	49	16	2	4	4	8	0.24615384615384617
UNKNOWN:chr9:81907318	29	23	2	2	4	6	0.4423076923076923
UNKNOWN:chr5:177688772	14	44	2	2	4	6	0.7586206896551724
UNKNOWN:chr6:30919345	33	42	2	2	2	4	0.56
UNKNOWN:chrX:137226514	47	14	2	2	6	8	0.22950819672131148
UNKNOWN:chr12:70036305	33	11	2	2	4	6	0.25
UNKNOWN:chr7:68557211	27	20	2	2	6	8	0.425531914893617
UNKNOWN:chr3:15997595	26	20	2	2	2	4	0.43478260869565216
UNKNOWN:chr10:21176945	0	31	2	2	2	4	1.0
UNKNOWN:chr15:74741975	28	24	2	2	3	5	0.46153846153846156
UNKNOWN:chr3:130190716	22	31	2	2	2	4	0.5849056603773585
UNKNOWN:chr1:94643215	14	6	2	2	2	4	0.3
UNKNOWN:chr11:62293822	23	86	2	2	4	6	0.7889908256880734
UNKNOWN:chrX:117546307	24	15	2	2	2	4	0.38461538461538464
UNKNOWN:chr6:153314073	4	8	2	0	2	2	0.6666666666666666
UNKNOWN:chr9:101748358	17	13	2	0	4	4	0.43333333333333335
UNKNOWN:chr17:72631872	8	72	2	0	6	6	0.9
UNKNOWN:chr1:38463713	37	13	2	2	4	6	0.26
UNKNOWN:chr19:8842321	86	1	2	2	4	6	0.011494252873563218
UNKNOWN:chr20:36874388	21	12	2	2	2	4	0.36363636363636365
UNKNOWN:chr1:152733301	23	18	2	2	3	5	0.43902439024390244
UNKNOWN:chr10:33637660	18	15	2	2	2	4	0.45454545454545453
UNKNOWN:chr15:81857048	22	13	2	2	3	5	0.37142857142857144
UNKNOWN:chrX:54975606	34	1	2	2	4	6	0.02857142857142857
UNKNOWN:chr20:52786219	24	46	2	2	4	6	0.6571428571428571
UNKNOWN:chr3:101504624	24	25	2	2	2	4	0.5102040816326531
UNKNOWN:chr9:114958764	8	52	2	0	4	4	0.8666666666666667
UNKNOWN:chr10:107346397	26	16	2	2	2	4	0.38095238095238093
UNKNOWN:chr12:101133912	0	42	2	0	4	4	1.0
UNKNOWN:chr20:31383530	20	20	2	2	2	4	0.5
UNKNOWN:chr20:29559207	38	10	2	2	2	4	0.20833333333333334
UNKNOWN:chr19:17943640	45	16	2	2	4	6	0.26229508196721313
UNKNOWN:chr7:100551471	79	47	2	2	6	8	0.373015873015873
UNKNOWN:chr1:152279927	16	16	2	2	3	5	0.5
UNKNOWN:chr1:199806572	20	10	2	2	3	5	0.3333333333333333
UNKNOWN:chr8:140461293	158	1	2	3	5	8	0.006289308176100629
UNKNOWN:chr6:36298316	13	6	2	2	2	4	0.3157894736842105
UNKNOWN:chr11:6541468	40	1	2	0	4	4	0.024390243902439025
